{
  "author": [
      "SimBaIT"
  ],
  "install_msg": "Thanks for installing.",
  "name": "ReactionRenameUser",
  "disabled": false,
  "description": "Change the user name when he click on on sepecify reaction",
  "tags": [
      "react",
      "reactionrenameuser",
      "reaction rename user",
      "rename user"
  ],
  "hidden": false,
  "min_bot_version": "3.3.5"
}